/* File : UserDefinedWidgets.i 				*/
/* Use this file for adding your own wrapping code 	*/
/* Source files should be added directly in setup.py 	*/


// add your code here:
// for instance:
// %include "MyPrettyNiceWidget.i"
